{
  "id": "com.nahuelwexd.ToDoList.python",
  "command": "todo-list",

  "runtime": "org.gnome.Platform",
  "runtime-version": "44",
  "sdk": "org.gnome.Sdk",

  "finish-args": [
    "--share=ipc",
    "--socket=fallback-x11",
    "--socket=wayland",
    "--device=dri"
  ],

  "modules": [
    {
      "name": "todo-list",
      "buildsystem": "meson",
      "config-opts": ["-Dlanguage=python"],
      "sources": [
        {
          "type": "dir",
          "path": "."
        }
      ]
    }
  ]
}
